module gitlab.com/gitlab-org/fleeting/fleeting

go 1.21

require (
	github.com/Microsoft/go-winio v0.6.2
	github.com/hashicorp/go-hclog v1.6.3
	github.com/hashicorp/go-plugin v1.6.1
	github.com/masterzen/winrm v0.0.0-20240702205601-3fad6e106085
	github.com/stretchr/testify v1.9.0
	golang.org/x/crypto v0.24.0
	golang.org/x/mod v0.17.0
	google.golang.org/grpc v1.64.0
	google.golang.org/protobuf v1.34.1
)

require (
	github.com/Azure/go-ntlmssp v0.0.0-20221128193559-754e69321358 // indirect
	github.com/ChrisTrenkamp/goxpath v0.0.0-20210404020558-97928f7e12b6 // indirect
	github.com/bodgit/ntlmssp v0.0.0-20240506230425-31973bb52d9b // indirect
	github.com/bodgit/windows v1.0.1 // indirect
	github.com/davecgh/go-spew v1.1.1 // indirect
	github.com/fatih/color v1.17.0 // indirect
	github.com/go-logr/logr v1.4.2 // indirect
	github.com/gofrs/uuid v4.4.0+incompatible // indirect
	github.com/golang/protobuf v1.5.4 // indirect
	github.com/hashicorp/go-cleanhttp v0.5.2 // indirect
	github.com/hashicorp/go-uuid v1.0.3 // indirect
	github.com/hashicorp/yamux v0.1.1 // indirect
	github.com/jcmturner/aescts/v2 v2.0.0 // indirect
	github.com/jcmturner/dnsutils/v2 v2.0.0 // indirect
	github.com/jcmturner/gofork v1.7.6 // indirect
	github.com/jcmturner/goidentity/v6 v6.0.1 // indirect
	github.com/jcmturner/gokrb5/v8 v8.4.4 // indirect
	github.com/jcmturner/rpc/v2 v2.0.3 // indirect
	github.com/masterzen/simplexml v0.0.0-20190410153822-31eea3082786 // indirect
	github.com/mattn/go-colorable v0.1.13 // indirect
	github.com/mattn/go-isatty v0.0.20 // indirect
	github.com/mitchellh/go-testing-interface v1.14.1 // indirect
	github.com/oklog/run v1.1.0 // indirect
	github.com/pmezard/go-difflib v1.0.0 // indirect
	github.com/stretchr/objx v0.5.2 // indirect
	github.com/tidwall/transform v0.0.0-20201103190739-32f242e2dbde // indirect
	golang.org/x/net v0.25.0 // indirect
	golang.org/x/sys v0.21.0 // indirect
	golang.org/x/text v0.16.0 // indirect
	google.golang.org/genproto/googleapis/rpc v0.0.0-20240528184218-531527333157 // indirect
	gopkg.in/yaml.v3 v3.0.1 // indirect
)
